<svg width="12" height="12" viewBox="0 0 12 12" fill="none" xmlns="http://www.w3.org/2000/svg">
<path fill-rule="evenodd" clip-rule="evenodd" d="M1.3232 0.11656C1.16698 -0.0396671 0.913697 -0.0396674 0.757484 0.11656L0.117704 0.7564C-0.038488 0.912607 -0.0384884 1.16585 0.117704 1.32206L4.79458 5.99937L0.117221 10.6746C-0.0390732 10.8309 -0.0390738 11.0842 0.11722 11.2404L0.757173 11.8801C0.913368 12.0362 1.16654 12.0362 1.32273 11.8801L6.00002 7.20492L10.676 11.8813C10.8322 12.0376 11.0855 12.0376 11.2417 11.8813L11.8815 11.2415C12.0377 11.0853 12.0377 10.832 11.8815 10.6758L7.20578 5.9997L11.8839 1.3237C12.0402 1.16747 12.0402 0.914108 11.8839 0.757884L11.2439 0.118217C11.0877 -0.0379087 10.8346 -0.037909 10.6784 0.118216L6.00034 4.79415L1.3232 0.11656Z" fill="white"/>
</svg>
