<svg width="198" height="40" viewBox="0 0 198 40" fill="none" xmlns="http://www.w3.org/2000/svg">
<path fill-rule="evenodd" clip-rule="evenodd" d="M52.3211 12.9015L53.6529 9.74752L54.9694 12.9015H52.3211ZM52.7591 7.39771L48.7031 16.7606H50.7317L51.6109 14.6412H55.6807L56.5614 16.7606H58.6405L54.5961 7.39771H52.7591Z" fill="white"/>
<path fill-rule="evenodd" clip-rule="evenodd" d="M60.4353 9.18527H65.5149L60.2695 15.2794V16.7607H68.0717V15.035H62.8275L68.0717 8.94453V7.46216H60.4353V9.18527Z" fill="white"/>
<path fill-rule="evenodd" clip-rule="evenodd" d="M74.0638 15.1501C72.6551 15.1501 71.7906 14.1941 71.6095 12.9161H76.5838C76.3373 14.2441 75.4052 15.1501 74.0638 15.1501ZM73.9333 7.30859C72.0851 7.30859 70.8083 8.01133 69.9421 9.03208L71.2087 10.2968C71.9962 9.50659 72.7967 9.10926 73.9333 9.10926C75.2261 9.10926 76.2728 9.86385 76.5703 11.2543H69.5022C69.49 11.4856 69.4766 11.6252 69.4766 11.8803V11.9075C69.4766 14.5517 70.9616 16.9133 74.0638 16.9133C76.7906 16.9133 78.741 14.7546 78.741 12.1115V12.0733C78.741 9.26141 76.6475 7.30859 73.9333 7.30859Z" fill="white"/>
<path fill-rule="evenodd" clip-rule="evenodd" d="M84.763 11.9961H82.593V9.23799H84.7217C85.77 9.23799 86.4151 9.70991 86.4151 10.6053V10.6307C86.4151 11.4467 85.7955 11.9961 84.763 11.9961ZM88.4179 10.5267V10.502C88.4179 9.64525 88.1475 8.91784 87.6297 8.40584C87.0108 7.79421 86.0802 7.46191 84.8918 7.46191H80.6172V16.7608H82.593V13.7332H84.3104L86.3919 16.7608H88.7177L86.3664 13.4021C87.5773 12.9801 88.4179 12.0347 88.4179 10.5267Z" fill="white"/>
<path fill-rule="evenodd" clip-rule="evenodd" d="M96.6432 13.976C96.6432 14.6908 96.0617 15.0349 95.1041 15.0349H92.5843V12.8906H95.027C96.1396 12.8906 96.6432 13.2857 96.6432 13.9514V13.976ZM92.5843 9.18448H94.7033C95.6077 9.18448 96.1127 9.55603 96.1127 10.182V10.2081C96.1127 10.9359 95.5177 11.2546 94.5752 11.2546H92.5843V9.18448ZM96.8357 11.9074C97.5101 11.5357 98.0878 10.9488 98.0878 9.88907V9.86374C98.0878 9.22455 97.8832 8.71285 97.4554 8.27877C96.9129 7.75611 96.0617 7.4624 94.9888 7.4624H90.6602V16.7599H95.1041C97.2246 16.7599 98.6198 15.9046 98.6198 14.2064V14.1814C98.6198 12.9284 97.9214 12.3028 96.8357 11.9074Z" fill="white"/>
<path fill-rule="evenodd" clip-rule="evenodd" d="M103.572 12.9015L104.901 9.74752L106.219 12.9015H103.572ZM104.012 7.39771L99.9531 16.7606H101.982L102.86 14.6412H106.93L107.809 16.7606H109.889L105.844 7.39771H104.012Z" fill="white"/>
<path fill-rule="evenodd" clip-rule="evenodd" d="M113.282 11.2671L110.97 7.4624H108.644L112.273 13.0938V16.7605H114.263V13.0567L117.907 7.4624H115.647L113.282 11.2671Z" fill="white"/>
<path fill-rule="evenodd" clip-rule="evenodd" d="M123.064 15.1136C121.41 15.1136 120.261 13.7455 120.261 12.1117V12.0868C120.261 10.45 121.437 9.1095 123.064 9.1095C124.033 9.1095 124.783 9.52009 125.519 10.182L126.785 8.73861C125.908 7.88298 124.849 7.30884 123.076 7.30884C120.196 7.30884 118.181 9.46713 118.181 12.1117V12.1371C118.181 14.8059 120.235 16.9131 122.999 16.9131C124.809 16.9131 125.881 16.2762 126.851 15.2654L125.583 14.0013C124.836 14.6784 124.164 15.1136 123.064 15.1136Z" fill="white"/>
<path fill-rule="evenodd" clip-rule="evenodd" d="M131.628 12.9015L132.962 9.74752L134.278 12.9015H131.628ZM132.067 7.39771L128.011 16.7606H130.041L130.919 14.6412H134.989L135.868 16.7606H137.947L133.905 7.39771H132.067Z" fill="white"/>
<path fill-rule="evenodd" clip-rule="evenodd" d="M145.907 7.46289V13.3243L141.373 7.46289H139.551V16.761H141.501V10.707L146.18 16.761H147.872V7.46289H145.907Z" fill="white"/>
<path fill-rule="evenodd" clip-rule="evenodd" d="M54.7723 28.724C54.7723 29.4499 54.1834 29.7998 53.2134 29.7998H50.6573V27.6231H53.1346C54.2611 27.6231 54.7723 28.0241 54.7723 28.6986V28.724ZM50.6573 23.8648H52.8078C53.7242 23.8648 54.2366 24.2405 54.2366 24.8752V24.9017C54.2366 25.6397 53.6324 25.9636 52.6765 25.9636H50.6573V23.8648ZM54.9697 26.6248C55.6517 26.2484 56.2406 25.653 56.2406 24.5775V24.5521C56.2406 23.9045 56.0316 23.3859 55.5988 22.9452C55.0478 22.414 54.1834 22.116 53.0948 22.116H48.7031V31.5486H53.2134C55.3627 31.5486 56.7786 30.6809 56.7786 28.9566V28.9312C56.7786 27.6613 56.0699 27.0269 54.9697 26.6248Z" fill="white"/>
<path fill-rule="evenodd" clip-rule="evenodd" d="M60.4819 27.6872H65.0434V25.9133H60.4819V23.8914H65.658V22.1165H58.4883V31.5488H65.7227V29.7738H60.4819V27.6872Z" fill="white"/>
<path fill-rule="evenodd" clip-rule="evenodd" d="M71.8213 25.9775L69.4749 22.116H67.1162L70.7985 27.8297V31.5483H72.8177V27.7922L76.5135 22.116H74.2205L71.8213 25.9775Z" fill="white"/>
<path fill-rule="evenodd" clip-rule="evenodd" d="M84.6803 28.0634L80.0782 22.116H78.2305V31.5483H80.2101V25.4067L84.9553 31.5483H86.6711V22.116H84.6803V28.0634Z" fill="white"/>
<path fill-rule="evenodd" clip-rule="evenodd" d="M93.3278 29.9166C91.899 29.9166 91.0208 28.9452 90.838 27.6488H95.8836C95.6349 28.9973 94.6908 29.9166 93.3278 29.9166ZM93.1967 21.9604C91.322 21.9604 90.0235 22.6724 89.1461 23.71L90.4311 24.9928C91.2306 24.1901 92.0436 23.7879 93.1967 23.7879C94.5072 23.7879 95.5674 24.5525 95.8709 25.9639H88.701C88.6883 26.198 88.6748 26.3407 88.6748 26.599V26.6251C88.6748 29.3072 90.1824 31.7044 93.3278 31.7044C96.0927 31.7044 98.0715 29.5145 98.0715 26.8325V26.7942C98.0715 23.943 95.9481 21.9604 93.1967 21.9604Z" fill="white"/>
<path fill-rule="evenodd" clip-rule="evenodd" d="M102.079 22.116H100.074V31.5483H106.89V29.7351H102.079V22.116Z" fill="white"/>
<path fill-rule="evenodd" clip-rule="evenodd" d="M117.259 22.116H114.966L112.868 25.2509L110.797 22.116H108.437L111.649 26.7542L108.294 31.5483H110.587L112.815 28.2314L115.03 31.5483H117.389L114.048 26.716L117.259 22.116Z" fill="white"/>
<path fill-rule="evenodd" clip-rule="evenodd" d="M122.469 27.6361L123.819 24.4358L125.156 27.6361H122.469ZM122.915 22.0518L118.8 31.5488H120.858L121.748 29.3982H125.878L126.769 31.5488H128.879L124.776 22.0518H122.915Z" fill="white"/>
<path fill-rule="evenodd" clip-rule="evenodd" d="M132.561 22.116H130.555V31.5483H137.371V29.7351H132.561V22.116Z" fill="white"/>
<path fill-rule="evenodd" clip-rule="evenodd" d="M145.862 26.8585C145.862 27.3639 145.758 27.8428 145.561 28.2582L143.975 26.8325L142.691 28.2582L144.263 29.5921C143.87 29.7736 143.424 29.8769 142.927 29.8769C141.197 29.8769 139.964 28.4909 139.964 26.8325V26.806C139.964 25.1479 141.171 23.7879 142.9 23.7879C144.63 23.7879 145.862 25.174 145.862 26.8325V26.8585ZM147.971 26.8325V26.806C147.971 24.125 145.862 21.9604 142.927 21.9604C139.99 21.9604 137.854 24.1625 137.854 26.8325V26.8585C137.854 29.5406 139.964 31.7044 142.9 31.7044C143.975 31.7044 144.946 31.3927 145.744 30.8752L146.819 31.8338L148.103 30.4205L147.107 29.5792C147.658 28.7893 147.971 27.8428 147.971 26.8325Z" fill="white"/>
<path fill-rule="evenodd" clip-rule="evenodd" d="M160.236 28.724C160.236 29.4499 159.647 29.7998 158.678 29.7998H156.122V27.6231H158.599C159.726 27.6231 160.236 28.0241 160.236 28.6986V28.724ZM156.122 23.8648H158.271C159.189 23.8648 159.7 24.2405 159.7 24.8752V24.9017C159.7 25.6397 159.097 25.9636 158.141 25.9636H156.122V23.8648ZM160.434 26.6248C161.115 26.2484 161.705 25.653 161.705 24.5775V24.5521C161.705 23.9045 161.497 23.3859 161.064 22.9452C160.512 22.414 159.647 22.116 158.56 22.116H154.168V31.5486H158.678C160.828 31.5486 162.243 30.6809 162.243 28.9566V28.9312C162.243 27.6613 161.534 27.0269 160.434 26.6248Z" fill="white"/>
<path fill-rule="evenodd" clip-rule="evenodd" d="M166.943 27.6361L168.294 24.4358L169.631 27.6361H166.943ZM167.389 22.0518L163.273 31.5488H165.332L166.222 29.3982H170.351L171.242 31.5488H173.353L169.25 22.0518H167.389Z" fill="white"/>
<path fill-rule="evenodd" clip-rule="evenodd" d="M181.426 28.0634L176.827 22.116H174.977V31.5483H176.957V25.4067L181.701 31.5483H183.419V22.116H181.426V28.0634Z" fill="white"/>
<path fill-rule="evenodd" clip-rule="evenodd" d="M194.318 22.116H191.841L187.856 26.3657V22.116H185.852V31.5483H187.856V28.6989L189.035 27.4934L192.064 31.5483H194.489L190.4 26.1326L194.318 22.116Z" fill="white"/>
<path fill-rule="evenodd" clip-rule="evenodd" d="M195.98 31.5483H197.999V22.116H195.98V31.5483Z" fill="white"/>
<path fill-rule="evenodd" clip-rule="evenodd" d="M30.464 27.6747C30.3117 26.7188 30.0638 25.8023 29.7193 24.9378C28.8527 25.2067 27.9632 25.3867 27.057 25.4701L25.8733 25.5782L25.7642 26.7489C25.4184 30.425 23.4636 33.8394 20.2296 36.4593C19.4235 35.8051 18.6966 35.1027 18.0544 34.3581C17.1354 34.7624 16.1785 35.0946 15.1881 35.3475C16.3284 36.8373 17.7335 38.2019 19.3862 39.3927L20.2296 40L21.0737 39.3927C25.1373 36.4661 27.73 32.5061 28.4681 28.1433C29.1436 28.0311 29.8099 27.8715 30.464 27.6747ZM21.9773 32.5807C22.5524 31.7993 23.0336 30.9769 23.4084 30.1251C22.6038 29.708 21.8457 29.2135 21.1448 28.6403L20.23 27.8895L19.3147 28.6403C16.4415 30.9989 12.6186 32.0459 8.45818 31.6384C8.3541 30.6122 8.34376 29.607 8.42117 28.6316C7.48311 28.2753 6.56789 27.8411 5.68778 27.3274C5.42827 29.1785 5.44551 31.1253 5.7627 33.1227L5.92443 34.1415L6.95561 34.302C11.9216 35.0739 16.5885 34.0857 20.23 31.517C20.7878 31.9102 21.3733 32.2622 21.9773 32.5807ZM32.957 18.2721C32.1653 17.7035 31.3344 17.2294 30.4725 16.8588C30.0512 17.6533 29.5513 18.4035 28.9696 19.095L28.2111 19.9996L28.9696 20.9037C31.3557 23.7441 32.4158 27.5236 32.0033 31.6384C30.9652 31.7392 29.9481 31.7506 28.9618 31.6729C28.601 32.603 28.1616 33.5056 27.6419 34.377C29.5143 34.6339 31.4839 34.6159 33.5043 34.302L34.5355 34.1421L34.6969 33.1224C35.4783 28.213 34.479 23.5998 31.8798 19.9996C32.2785 19.4473 32.6345 18.8692 32.957 18.2721ZM39.8468 19.1654C36.8868 15.1487 32.8806 12.5853 28.4681 11.8561C28.355 11.1868 28.193 10.5293 27.9942 9.88141C27.0273 10.0326 26.0998 10.2777 25.2251 10.6185C25.4965 11.4759 25.6792 12.3553 25.7642 13.2505L25.8733 14.4208L27.0573 14.5296C30.7759 14.8714 34.2292 16.8012 36.879 19.9993C36.2183 20.7971 35.5065 21.5157 34.7543 22.1506C35.1626 23.0597 35.4993 24.0063 35.7547 24.9845C37.2617 23.857 38.6423 22.4679 39.8468 20.833L40.4612 19.9993L39.8468 19.1654ZM18.4823 7.41867C17.9074 8.20104 17.4282 9.02244 17.0527 9.8743C17.8573 10.2907 18.6158 10.7843 19.3147 11.3594L20.2296 12.1093L21.1448 11.3594C24.0183 9.00081 27.8412 7.95348 32.0033 8.36185C32.1048 9.38719 32.1161 10.3924 32.038 11.3681C32.9784 11.7239 33.8927 12.1576 34.7734 12.672C35.0335 10.8209 35.0153 8.87437 34.6969 6.87639L34.5355 5.85696L33.5043 5.69769C28.5377 4.92614 23.8714 5.91366 20.2296 8.48304C19.6721 8.08859 19.0869 7.73689 18.4823 7.41867ZM9.99555 12.3253C10.1482 13.2802 10.3974 14.1959 10.7409 15.0607C11.6085 14.7942 12.4973 14.6127 13.4031 14.5293L14.5867 14.4202L14.6973 13.2505C15.0427 9.5743 16.9953 6.1603 20.2296 3.54014C21.0367 4.19394 21.7632 4.8967 22.4057 5.64067C23.3254 5.23693 24.2826 4.90352 25.2727 4.65191C24.1322 3.16118 22.7267 1.79842 21.0737 0.607633L20.2296 0L19.3862 0.607633C15.3238 3.53394 12.7306 7.49237 11.9928 11.8564C11.3164 11.9683 10.6503 12.1279 9.99555 12.3253ZM12.4676 30.1173C13.4333 29.9664 14.36 29.721 15.2345 29.3808C14.964 28.5241 14.781 27.6444 14.6973 26.7492L14.5867 25.5785L13.4025 25.4701C9.68498 25.1293 6.23097 23.197 3.58124 19.9993C4.24225 19.2026 4.95374 18.4837 5.70628 17.8488C5.29789 16.94 4.96063 15.994 4.70613 15.0148C3.19822 16.1424 1.81851 17.5315 0.614633 19.1651L0 19.9993L0.614633 20.833C3.57435 24.8504 7.57935 27.4136 11.9928 28.1433C12.1065 28.8116 12.2682 29.4701 12.4676 30.1173ZM7.50382 21.7267C8.29551 22.2956 9.12639 22.7706 9.98806 23.1412C10.4096 22.3461 10.9089 21.5965 11.4897 20.9037L12.2494 19.9993L11.4897 19.095C9.10511 16.2546 8.04443 12.4749 8.45788 8.36156C9.49563 8.25926 10.5124 8.24815 11.4991 8.32563C11.8589 7.39788 12.298 6.49247 12.8186 5.6227C10.9456 5.36613 8.97661 5.38349 6.95561 5.69769L5.92443 5.85664L5.7627 6.87639C4.9832 11.7855 5.98179 16.3996 8.58136 19.9993C8.18237 20.5511 7.82601 21.129 7.50382 21.7267Z" fill="white"/>
</svg>
