<svg width="70" height="52" viewBox="0 0 70 52" fill="none" xmlns="http://www.w3.org/2000/svg">
<path fill-rule="evenodd" clip-rule="evenodd" d="M68.5905 4.31284C69.3697 5.09214 69.3717 6.35492 68.5949 7.13665L25.436 50.5722C24.654 51.3593 23.3807 51.3593 22.5986 50.5722L1.4051 29.2428C0.628345 28.4611 0.63032 27.1983 1.40952 26.419L4.30306 23.5251C5.08586 22.7422 6.35575 22.7442 7.13609 23.5295L24.0173 40.519L62.8639 1.42336C63.6443 0.638011 64.9141 0.636023 65.6969 1.41892L68.5905 4.31284Z" fill="white"/>
</svg>
